C:\Users\Windows10\Desktop\oop\Animal\src\main\java\com\rattanalak\animal\AquaticAnimal.java
C:\Users\Windows10\Desktop\oop\Animal\src\main\java\com\rattanalak\animal\Reptile.java
C:\Users\Windows10\Desktop\oop\Animal\src\main\java\com\rattanalak\animal\Poultry.java
C:\Users\Windows10\Desktop\oop\Animal\src\main\java\com\rattanalak\animal\LandAnimal.java
C:\Users\Windows10\Desktop\oop\Animal\src\main\java\com\rattanalak\animal\Animal.java
C:\Users\Windows10\Desktop\oop\Animal\src\main\java\com\rattanalak\animal\Human.java
C:\Users\Windows10\Desktop\oop\Animal\src\main\java\com\rattanalak\animal\TestAnimal.java
